…
## `Select`

`select` selects variables from my dataframe.

select specific variables

``` r
select(litters_df, group, litter_number, gd0_weight)
```

    ## # A tibble: 49 × 3
    ##    group litter_number   gd0_weight
    ##    <chr> <chr>                <dbl>
    ##  1 Con7  #85                   19.7
    ##  2 Con7  #1/2/95/2             27  
    ##  3 Con7  #5/5/3/83/3-3         26  
    ##  4 Con7  #5/4/2/95/2           28.5
    ##  5 Con7  #4/2/95/3-3           NA  
    ##  6 Con7  #2/2/95/3-2           NA  
    ##  7 Con7  #1/5/3/83/3-3/2       NA  
    ##  8 Con8  #3/83/3-3             NA  
    ##  9 Con8  #2/95/3               NA  
    ## 10 Con8  #3/5/2/2/95           28.5
    ## # ℹ 39 more rows

select a range

``` r
select(litters_df, group:gd_of_birth) #keeps variables from group to gd of birth
```

    ## # A tibble: 49 × 5
    ##    group litter_number   gd0_weight gd18_weight gd_of_birth
    ##    <chr> <chr>                <dbl>       <dbl>       <dbl>
    ##  1 Con7  #85                   19.7        34.7          20
    ##  2 Con7  #1/2/95/2             27          42            19
    ##  3 Con7  #5/5/3/83/3-3         26          41.4          19
    ##  4 Con7  #5/4/2/95/2           28.5        44.1          19
    ##  5 Con7  #4/2/95/3-3           NA          NA            20
    ##  6 Con7  #2/2/95/3-2           NA          NA            20
    ##  7 Con7  #1/5/3/83/3-3/2       NA          NA            20
    ##  8 Con8  #3/83/3-3             NA          NA            20
    ##  9 Con8  #2/95/3               NA          NA            20
    ## 10 Con8  #3/5/2/2/95           28.5        NA            20
    ## # ℹ 39 more rows

select by deletion

``` r
select(litters_df, -group)
```

    ## # A tibble: 49 × 7
    ##    litter_number   gd0_weight gd18_weight gd_of_birth pups_born_alive
    ##    <chr>                <dbl>       <dbl>       <dbl>           <dbl>
    ##  1 #85                   19.7        34.7          20               3
    ##  2 #1/2/95/2             27          42            19               8
    ##  3 #5/5/3/83/3-3         26          41.4          19               6
    ##  4 #5/4/2/95/2           28.5        44.1          19               5
    ##  5 #4/2/95/3-3           NA          NA            20               6
    ##  6 #2/2/95/3-2           NA          NA            20               6
    ##  7 #1/5/3/83/3-3/2       NA          NA            20               9
    ##  8 #3/83/3-3             NA          NA            20               9
    ##  9 #2/95/3               NA          NA            20               8
    ## 10 #3/5/2/2/95           28.5        NA            20               8
    ## # ℹ 39 more rows
    ## # ℹ 2 more variables: pups_dead_birth <dbl>, pups_survive <dbl>

select by prefix - keeping everything that starts with gd in this case

``` r
select(litters_df, group, starts_with("gd"))
```

    ## # A tibble: 49 × 4
    ##    group gd0_weight gd18_weight gd_of_birth
    ##    <chr>      <dbl>       <dbl>       <dbl>
    ##  1 Con7        19.7        34.7          20
    ##  2 Con7        27          42            19
    ##  3 Con7        26          41.4          19
    ##  4 Con7        28.5        44.1          19
    ##  5 Con7        NA          NA            20
    ##  6 Con7        NA          NA            20
    ##  7 Con7        NA          NA            20
    ##  8 Con8        NA          NA            20
    ##  9 Con8        NA          NA            20
    ## 10 Con8        28.5        NA            20
    ## # ℹ 39 more rows

rearrange byb selecting

``` r
select(litters_df, starts_with("gd"), group)
```

    ## # A tibble: 49 × 4
    ##    gd0_weight gd18_weight gd_of_birth group
    ##         <dbl>       <dbl>       <dbl> <chr>
    ##  1       19.7        34.7          20 Con7 
    ##  2       27          42            19 Con7 
    ##  3       26          41.4          19 Con7 
    ##  4       28.5        44.1          19 Con7 
    ##  5       NA          NA            20 Con7 
    ##  6       NA          NA            20 Con7 
    ##  7       NA          NA            20 Con7 
    ##  8       NA          NA            20 Con8 
    ##  9       NA          NA            20 Con8 
    ## 10       28.5        NA            20 Con8 
    ## # ℹ 39 more rows

``` r
select(litters_df, litter_number, everything())
```

    ## # A tibble: 49 × 8
    ##    litter_number   group gd0_weight gd18_weight gd_of_birth pups_born_alive
    ##    <chr>           <chr>      <dbl>       <dbl>       <dbl>           <dbl>
    ##  1 #85             Con7        19.7        34.7          20               3
    ##  2 #1/2/95/2       Con7        27          42            19               8
    ##  3 #5/5/3/83/3-3   Con7        26          41.4          19               6
    ##  4 #5/4/2/95/2     Con7        28.5        44.1          19               5
    ##  5 #4/2/95/3-3     Con7        NA          NA            20               6
    ##  6 #2/2/95/3-2     Con7        NA          NA            20               6
    ##  7 #1/5/3/83/3-3/2 Con7        NA          NA            20               9
    ##  8 #3/83/3-3       Con8        NA          NA            20               9
    ##  9 #2/95/3         Con8        NA          NA            20               8
    ## 10 #3/5/2/2/95     Con8        28.5        NA            20               8
    ## # ℹ 39 more rows
    ## # ℹ 2 more variables: pups_dead_birth <dbl>, pups_survive <dbl>
rename by selecting

``` r
select(litters_df, )
```

    ## # A tibble: 49 × 0

what is i only select one variable - group in this case

``` r
select(litters_df, group)
```

    ## # A tibble: 49 × 1
    ##    group
    ##    <chr>
    ##  1 Con7 
    ##  2 Con7 
    ##  3 Con7 
    ##  4 Con7 
    ##  5 Con7 
    ##  6 Con7 
    ##  7 Con7 
    ##  8 Con8 
    ##  9 Con8 
    ## 10 Con8 
    ## # ℹ 39 more rows
…
``` r
                        #don't use a pull function!!!
```

you could assign the selection to object

``` r
select(litters_df, litter_number, everything())
```

    ## # A tibble: 49 × 8
    ##    litter_number   group gd0_weight gd18_weight gd_of_birth pups_born_alive
    ##    <chr>           <chr>      <dbl>       <dbl>       <dbl>           <dbl>
    ##  1 #85             Con7        19.7        34.7          20               3
    ##  2 #1/2/95/2       Con7        27          42            19               8
    ##  3 #5/5/3/83/3-3   Con7        26          41.4          19               6
    ##  4 #5/4/2/95/2     Con7        28.5        44.1          19               5
    ##  5 #4/2/95/3-3     Con7        NA          NA            20               6
    ##  6 #2/2/95/3-2     Con7        NA          NA            20               6
    ##  7 #1/5/3/83/3-3/2 Con7        NA          NA            20               9
    ##  8 #3/83/3-3       Con8        NA          NA            20               9
    ##  9 #2/95/3         Con8        NA          NA            20               8
    ## 10 #3/5/2/2/95     Con8        28.5        NA            20               8
    ## # ℹ 39 more rows
    ## # ℹ 2 more variables: pups_dead_birth <dbl>, pups_survive <dbl>

LA 1 code

``` r
select(pups_df, litter_number, sex, pd_ears)
```

    ## # A tibble: 313 × 3
    ##    litter_number   sex pd_ears
    ##    <chr>         <dbl>   <dbl>
    ##  1 #85               1       4
    ##  2 #85               1       4
    ##  3 #1/2/95/2         1       5
    ##  4 #1/2/95/2         1       5
    ##  5 #5/5/3/83/3-3     1       5
    ##  6 #5/5/3/83/3-3     1       5
    ##  7 #5/4/2/95/2       1      NA
    ##  8 #4/2/95/3-3       1       4
    ##  9 #4/2/95/3-3       1       4
    ## 10 #2/2/95/3-2       1       4
    ## # ℹ 303 more rows
